…
``` r
# Combine precipitation datasets
pcptt_1718 = full_join(pcptt_2017, pcptt_2018) %>%
  mutate(month = month.name[month])
pcptt_1718
```

    ## # A tibble: 26 x 3
    ##    month     total year 
    ##    <chr>     <dbl> <chr>
    ##  1 January    2.34 2017 
    ##  2 February   1.46 2017 
    ##  3 March      3.57 2017 
    ##  4 April      3.99 2017 
    ##  5 May        5.64 2017 
    ##  6 June       1.4  2017 
    ##  7 July       7.09 2017 
    ##  8 August     4.44 2017 
    ##  9 September  1.95 2017 
    ## 10 October    0    2017 
    ## # … with 16 more rows
…
# Read the data in pol-month
pol_month = read_csv("./data/fivethirtyeight_datasets/pols-month.csv") %>%
  janitor::clean_names() %>%
  separate(mon, into = c("year", "month", "day"), sep = "-") %>%
  mutate(month = month.name[as.numeric(month)]) %>%
  pivot_longer(cols = starts_with("prez"),
               names_to = "president",
               names_prefix = "prez_") %>%
  select(-day) %>%
  filter(value %in% c(1, 2)) %>%
  select(-value)
pol_month
```

    ## # A tibble: 822 x 9
    ##    year  month    gov_gop sen_gop rep_gop gov_dem sen_dem rep_dem president
    ##    <chr> <chr>      <dbl>   <dbl>   <dbl>   <dbl>   <dbl>   <dbl> <chr>    
    ##  1 1947  January       23      51     253      23      45     198 dem      
    ##  2 1947  February      23      51     253      23      45     198 dem      
    ##  3 1947  March         23      51     253      23      45     198 dem      
    ##  4 1947  April         23      51     253      23      45     198 dem      
    ##  5 1947  May           23      51     253      23      45     198 dem      
    ##  6 1947  June          23      51     253      23      45     198 dem      
    ##  7 1947  July          23      51     253      23      45     198 dem      
    ##  8 1947  August        23      51     253      23      45     198 dem      
    ##  9 1947  Septemb…      23      51     253      23      45     198 dem      
    ## 10 1947  October       23      51     253      23      45     198 dem      
    ## # … with 812 more rows

``` r
# In pol_month, the prez_gop data has a value of "2". These values are considered to be same as "1" in this case as they both show that they won.

# Read the data in snp.csv
snp = read_csv("./data/fivethirtyeight_datasets/snp.csv") %>%
  janitor::clean_names() %>%
  separate(date, into = c("month", "day", "year"), sep = "/") %>%
  mutate(month = month.name[as.numeric(month)]) %>%
  arrange(year, month)
snp
```

    ## # A tibble: 787 x 4
    ##    month    day   year  close
    ##    <chr>    <chr> <chr> <dbl>
    ##  1 April    3     1950   18.0
    ##  2 August   1     1950   18.4
    ##  3 December 1     1950   20.4
    ##  4 February 1     1950   17.2
    ##  5 January  3     1950   17.0
    ##  6 July     3     1950   17.8
    ##  7 June     1     1950   17.7
    ##  8 March    1     1950   17.3
    ##  9 May      1     1950   18.8
    ## 10 November 1     1950   19.5
    ## # … with 777 more rows

``` r
# Read and tidy unemployment data
unemployment = read_csv("./data/fivethirtyeight_datasets/unemployment.csv") %>%
  janitor::clean_names() %>%
  pivot_longer(jan:dec,
               names_to = "month") %>%
  mutate(month = month.name[factor(month)]) %>%
  mutate(year = as.character(year))
unemployment
```

    ## # A tibble: 816 x 3
    ##    year  month     value
    ##    <chr> <chr>     <dbl>
    ##  1 1948  May         3.4
    ##  2 1948  April       3.8
    ##  3 1948  August      4  
    ##  4 1948  January     3.9
    ##  5 1948  September   3.5
    ##  6 1948  July        3.6
    ##  7 1948  June        3.6
    ##  8 1948  February    3.9
    ##  9 1948  December    3.8
    ## 10 1948  November    3.7
    ## # … with 806 more rows

``` r
# Merging snp into pol_month
  snp_pol = left_join(pol_month, snp, by = c("month", "year"))
# Merging unemployment data into one dataset
  snp_pol_unempl = left_join(snp_pol, unemployment, 
                             by = c("month", "year"))
  snp_pol_unempl
```

    ## # A tibble: 822 x 12
    ##    year  month gov_gop sen_gop rep_gop gov_dem sen_dem rep_dem president
    ##    <chr> <chr>   <dbl>   <dbl>   <dbl>   <dbl>   <dbl>   <dbl> <chr>    
    ##  1 1947  Janu…      23      51     253      23      45     198 dem      
    ##  2 1947  Febr…      23      51     253      23      45     198 dem      
    ##  3 1947  March      23      51     253      23      45     198 dem      
    ##  4 1947  April      23      51     253      23      45     198 dem      
    ##  5 1947  May        23      51     253      23      45     198 dem      
    ##  6 1947  June       23      51     253      23      45     198 dem      
    ##  7 1947  July       23      51     253      23      45     198 dem      
    ##  8 1947  Augu…      23      51     253      23      45     198 dem      
    ##  9 1947  Sept…      23      51     253      23      45     198 dem      
    ## 10 1947  Octo…      23      51     253      23      45     198 dem      
    ## # … with 812 more rows, and 3 more variables: day <chr>, close <dbl>,
    ## #   value <dbl>
…
